{"success":true,"timestamp":"2024-01-15T10:30:00Z","pagination":{"page":1,"per_page":25,"total":250,"total_pages":10},"data":[{"id":"item_000000","name":"Product 0","description":"This is a detailed description for product 0. ","price":372.77,"quantity":216,"category":"clothing","tags":["tag_0","tag_1","tag_2","tag_3"],"metadata":{"created":"2024-03-05T08:31:00Z","updated":"2024-04-27T20:04:00Z","version":"v1.48.73","author":"Alice","approved":true},"variants":[{"sku":"SKU-0-0","color":"white","size":"S","stock":282},{"sku":"SKU-0-1","color":"blue","size":"XL","stock":328}]},{"id":"item_000001","name":"Product 1","description":"This is a detailed description for product 1. This is a detailed description for product 1. This is a detailed description for product 1. This is a detailed description for product 1. This is a detailed description for product 1. ","price":798.98,"quantity":443,"category":"garden","tags":["tag_0","tag_1","tag_2","tag_3","tag_4","tag_5"],"metadata":{"created":"2024-02-11T15:23:00Z","updated":"2024-04-10T22:33:00Z","version":"v1.51.73","author":"Eve","approved":true},"variants":[{"sku":"SKU-1-0","color":"green","size":"L","stock":51},{"sku":"SKU-1-1","color":"blue","size":"L","stock":258}]},{"id":"item_000002","name":"Product 2","description":"This is a detailed description for product 2. This is a detailed description for product 2. This is a detailed description for product 2. ","price":315.28,"quantity":966,"category":"sports","tags":["tag_0","tag_1","tag_2","tag_3","tag_4","tag_5","tag_6","tag_7","tag_8","tag_9"],"metadata":{"created":"2024-02-06T08:46:00Z","updated":"2024-03-21T00:42:00Z","version":"v5.29.8","author":"Eve","approved":false},"variants":[{"sku":"SKU-2-0","color":"green","size":"S","stock":434},{"sku":"SKU-2-1","color":"blue","size":"XL","stock":406},{"sku":"SKU-2-2","color":"green","size":"M","stock":316},{"sku":"SKU-2-3","color":"blue","size":"M","stock":442},{"sku":"SKU-2-4","color":"white","size":"XS","stock":13}]},{"id":"item_000003","name":"Product 3","description":"This is a detailed description for product 3. This is a detailed description for product 3. This is a detailed description for product 3. ","price":13.08,"quantity":880,"category":"electronics","tags":["tag_0"],"metadata":{"created":"2024-10-27T11:01:00Z","updated":"2024-01-16T06:18:00Z","version":"v4.43.38","author":"Alice","approved":false},"variants":[{"sku":"SKU-3-0","color":"red","size":"XS","stock":129},{"sku":"SKU-3-1","color":"white","size":"XS","stock":166},{"sku":"SKU-3-2","color":"white","size":"XS","stock":331},{"sku":"SKU-3-3","color":"white","size":"XS","stock":17},{"sku":"SKU-3-4","color":"black","size":"XS","stock":358}]},{"id":"item_000004","name":"Product 4","description":"This is a detailed description for product 4. This is a detailed description for product 4. This is a detailed description for product 4. ","price":647.25,"quantity":977,"category":"sports","tags":["tag_0","tag_1","tag_2","tag_3","tag_4","tag_5"],"metadata":{"created":"2024-09-24T16:57:00Z","updated":"2024-01-28T12:23:00Z","version":"v4.39.86","author":"Eve","approved":true},"variants":[{"sku":"SKU-4-0","color":"white","size":"XS","stock":476},{"sku":"SKU-4-1","color":"green","size":"L","stock":481},{"sku":"SKU-4-2","color":"green","size":"L","stock":95}]},{"id":"item_000005","name":"Product 5","description":"This is a detailed description for product 5. This is a detailed description for product 5. ","price":239.9,"quantity":938,"category":"sports","tags":["tag_0","tag_1","tag_2"],"metadata":{"created":"2024-10-10T18:25:00Z","updated":"2024-05-15T22:39:00Z","version":"v5.74.29","author":"Bob","approved":true},"variants":[{"sku":"SKU-5-0","color":"red","size":"XL","stock":139}]},{"id":"item_000006","name":"Product 6","description":"This is a detailed description for product 6. ","price":91.47,"quantity":345,"category":"sports","tags":["tag_0","tag_1","tag_2","tag_3","tag_4","tag_5","tag_6","tag_7","tag_8"],"metadata":{"created":"2024-06-14T11:35:00Z","updated":"2024-12-18T22:24:00Z","version":"v2.50.87","author":"Charlie","approved":true},"variants":[{"sku":"SKU-6-0","color":"red","size":"XS","stock":157},{"sku":"SKU-6-1","color":"blue","size":"L","stock":429},{"sku":"SKU-6-2","color":"blue","size":"L","stock":238}]},{"id":"item_000007","name":"Product 7","description":"This is a detailed description for product 7. This is a detailed description for product 7. This is a detailed description for product 7. This is a detailed description for product 7. ","price":200.98,"quantity":578,"category":"electronics","tags":["tag_0","tag_1","tag_2","tag_3","tag_4","tag_5"],"metadata":{"created":"2024-11-19T18:55:00Z","updated":"2024-10-16T16:19:00Z","version":"v3.51.35","author":"Charlie","approved":false},"variants":[{"sku":"SKU-7-0","color":"black","size":"XS","stock":497},{"sku":"SKU-7-1","color":"black","size":"L","stock":212},{"sku":"SKU-7-2","color":"green","size":"S","stock":63},{"sku":"SKU-7-3","color":"black","size":"L","stock":66},{"sku":"SKU-7-4","color":"black","size":"L","stock":66}]},{"id":"item_000008","name":"Product 8","description":"This is a detailed description for product 8. This is a detailed description for product 8. This is a detailed description for product 8. This is a detailed description for product 8. This is a detailed description for product 8. ","price":76.53,"quantity":27,"category":"clothing","tags":["tag_0","tag_1","tag_2","tag_3","tag_4","tag_5"],"metadata":{"created":"2024-02-08T22:12:00Z","updated":"2024-05-06T14:23:00Z","version":"v5.99.96","author":"Bob","approved":true},"variants":[{"sku":"SKU-8-0","color":"blue","size":"L","stock":34},{"sku":"SKU-8-1","color":"black","size":"L","stock":321},{"sku":"SKU-8-2","color":"white","size":"L","stock":150}]},{"id":"item_000009","name":"Product 9","description":"This is a detailed description for product 9. This is a detailed description for product 9. This is a detailed description for product 9. This is a detailed description for product 9. This is a detailed description for product 9. ","price":228.22,"quantity":77,"category":"electronics","tags":["tag_0","tag_1","tag_2","tag_3","tag_4","tag_5"],"metadata":{"created":"2024-12-14T14:27:00Z","updated":"2024-06-21T01:32:00Z","version":"v4.12.11","author":"Charlie","approved":true},"variants":[{"sku":"SKU-9-0","color":"blue","size":"S","stock":78},{"sku":"SKU-9-1","color":"blue","size":"XS","stock":136},{"sku":"SKU-9-2","color":"black","size":"L","stock":99}]},{"id":"item_000010","name":"Product 10","description":"This is a detailed description for product 10. This is a detailed description for product 10. This is a detailed description for product 10. This is a detailed description for product 10. This is a detailed description for product 10. ","price":657.84,"quantity":93,"category":"garden","tags":["tag_0","tag_1","tag_2","tag_3","tag_4","tag_5","tag_6","tag_7"],"metadata":{"created":"2024-11-16T07:16:00Z","updated":"2024-10-08T11:49:00Z","version":"v4.59.31","author":"Charlie","approved":true},"variants":[{"sku":"SKU-10-0","color":"green","size":"M","stock":385},{"sku":"SKU-10-1","color":"red","size":"XS","stock":334}]},{"id":"item_000011","name":"Product 11","description":"This is a detailed description for product 11. This is a detailed description for product 11. This is a detailed description for product 11. ","price":230.07,"quantity":462,"category":"garden","tags":["tag_0","tag_1","tag_2","tag_3","tag_4","tag_5","tag_6","tag_7","tag_8","tag_9"],"metadata":{"created":"2024-01-19T02:10:00Z","updated":"2024-10-15T19:55:00Z","version":"v3.7.62","author":"Eve","approved":true},"variants":[{"sku":"SKU-11-0","color":"blue","size":"S","stock":260}]},{"id":"item_000012","name":"Product 12","description":"This is a detailed description for product 12. This is a detailed description for product 12. ","price":738.95,"quantity":348,"category":"home","tags":["tag_0","tag_1","tag_2","tag_3","tag_4","tag_5","tag_6","tag_7","tag_8"],"metadata":{"created":"2024-08-04T17:18:00Z","updated":"2024-06-26T03:04:00Z","version":"v3.70.3","author":"Bob","approved":false},"variants":[{"sku":"SKU-12-0","color":"white","size":"M","stock":408}]},{"id":"item_000013","name":"Product 13","description":"This is a detailed description for product 13. This is a detailed description for product 13. This is a detailed description for product 13. This is a detailed description for product 13. This is a detailed description for product 13. ","price":95.44,"quantity":499,"category":"electronics","tags":["tag_0","tag_1","tag_2","tag_3","tag_4"],"metadata":{"created":"2024-04-26T02:51:00Z","updated":"2024-01-22T07:30:00Z","version":"v1.61.4","author":"Bob","approved":false},"variants":[{"sku":"SKU-13-0","color":"white","size":"L","stock":335},{"sku":"SKU-13-1","color":"green","size":"S","stock":221},{"sku":"SKU-13-2","color":"black","size":"L","stock":24}]},{"id":"item_000014","name":"Product 14","description":"This is a detailed description for product 14. This is a detailed description for product 14. ","price":966.56,"quantity":611,"category":"garden","tags":["tag_0","tag_1","tag_2","tag_3","tag_4","tag_5"],"metadata":{"created":"2024-12-04T19:58:00Z","updated":"2024-10-01T19:31:00Z","version":"v5.63.62","author":"Alice","approved":false},"variants":[{"sku":"SKU-14-0","color":"green","size":"XS","stock":401},{"sku":"SKU-14-1","color":"blue","size":"XS","stock":271},{"sku":"SKU-14-2","color":"blue","size":"L","stock":4},{"sku":"SKU-14-3","color":"red","size":"S","stock":226}]},{"id":"item_000015","name":"Product 15","description":"This is a detailed description for product 15. This is a detailed description for product 15. This is a detailed description for product 15. This is a detailed description for product 15. This is a detailed description for product 15. ","price":722.43,"quantity":557,"category":"home","tags":["tag_0","tag_1","tag_2","tag_3","tag_4","tag_5","tag_6","tag_7"],"metadata":{"created":"2024-04-10T00:12:00Z","updated":"2024-12-19T20:57:00Z","version":"v1.66.66","author":"Eve","approved":false},"variants":[{"sku":"SKU-15-0","color":"blue","size":"S","stock":436}]},{"id":"item_000016","name":"Product 16","description":"This is a detailed description for product 16. This is a detailed description for product 16. This is a detailed description for product 16. ","price":239.37,"quantity":880,"category":"sports","tags":["tag_0","tag_1","tag_2"],"metadata":{"created":"2024-07-02T06:04:00Z","updated":"2024-09-12T16:12:00Z","version":"v1.77.86","author":"Diana","approved":false},"variants":[{"sku":"SKU-16-0","color":"red","size":"XS","stock":316},{"sku":"SKU-16-1","color":"green","size":"L","stock":100}]},{"id":"item_000017","name":"Product 17","description":"This is a detailed description for product 17. This is a detailed description for product 17. This is a detailed description for product 17. This is a detailed description for product 17. This is a detailed description for product 17. ","price":578.61,"quantity":41,"category":"home","tags":["tag_0","tag_1","tag_2","tag_3","tag_4","tag_5","tag_6","tag_7","tag_8"],"metadata":{"created":"2024-03-24T21:55:00Z","updated":"2024-01-25T20:55:00Z","version":"v2.50.88","author":"Alice","approved":true},"variants":[{"sku":"SKU-17-0","color":"green","size":"XS","stock":450},{"sku":"SKU-17-1","color":"white","size":"XL","stock":301},{"sku":"SKU-17-2","color":"blue","size":"XS","stock":54}]},{"id":"item_000018","name":"Product 18","description":"This is a detailed description for product 18. This is a detailed description for product 18. This is a detailed description for product 18. This is a detailed description for product 18. ","price":553.97,"quantity":735,"category":"sports","tags":["tag_0","tag_1","tag_2","tag_3","tag_4","tag_5"],"metadata":{"created":"2024-11-26T09:15:00Z","updated":"2024-03-06T02:55:00Z","version":"v2.16.71","author":"Bob","approved":true},"variants":[{"sku":"SKU-18-0","color":"white","size":"L","stock":127},{"sku":"SKU-18-1","color":"black","size":"S","stock":390},{"sku":"SKU-18-2","color":"green","size":"M","stock":45},{"sku":"SKU-18-3","color":"green","size":"M","stock":27},{"sku":"SKU-18-4","color":"green","size":"M","stock":59}]},{"id":"item_000019","name":"Product 19","description":"This is a detailed description for product 19. This is a detailed description for product 19. This is a detailed description for product 19. This is a detailed description for product 19. This is a detailed description for product 19. ","price":921.61,"quantity":765,"category":"home","tags":["tag_0","tag_1"],"metadata":{"created":"2024-02-05T03:56:00Z","updated":"2024-05-24T04:26:00Z","version":"v2.28.33","author":"Eve","approved":false},"variants":[{"sku":"SKU-19-0","color":"red","size":"M","stock":236},{"sku":"SKU-19-1","color":"black","size":"L","stock":251},{"sku":"SKU-19-2","color":"black","size":"XL","stock":164},{"sku":"SKU-19-3","color":"red","size":"XS","stock":350},{"sku":"SKU-19-4","color":"white","size":"S","stock":155}]},{"id":"item_000020","name":"Product 20","description":"This is a detailed description for product 20. This is a detailed description for product 20. ","price":654.92,"quantity":304,"category":"home","tags":["tag_0","tag_1","tag_2","tag_3","tag_4","tag_5","tag_6"],"metadata":{"created":"2024-01-16T14:34:00Z","updated":"2024-06-13T18:56:00Z","version":"v3.16.16","author":"Charlie","approved":true},"variants":[{"sku":"SKU-20-0","color":"blue","size":"XL","stock":105},{"sku":"SKU-20-1","color":"black","size":"XS","stock":215},{"sku":"SKU-20-2","color":"green","size":"XS","stock":453},{"sku":"SKU-20-3","color":"red","size":"M","stock":318},{"sku":"SKU-20-4","color":"black","size":"XL","stock":373}]},{"id":"item_000021","name":"Product 21","description":"This is a detailed description for product 21. This is a detailed description for product 21. This is a detailed description for product 21. ","price":802.32,"quantity":389,"category":"electronics","tags":["tag_0","tag_1"],"metadata":{"created":"2024-04-18T15:27:00Z","updated":"2024-04-22T09:35:00Z","version":"v2.3.86","author":"Eve","approved":false},"variants":[{"sku":"SKU-21-0","color":"blue","size":"L","stock":350},{"sku":"SKU-21-1","color":"black","size":"M","stock":193},{"sku":"SKU-21-2","color":"red","size":"M","stock":121}]},{"id":"item_000022","name":"Product 22","description":"This is a detailed description for product 22. This is a detailed description for product 22. This is a detailed description for product 22. This is a detailed description for product 22. ","price":147.45,"quantity":327,"category":"home","tags":["tag_0","tag_1","tag_2","tag_3","tag_4"],"metadata":{"created":"2024-01-27T10:33:00Z","updated":"2024-05-28T03:31:00Z","version":"v2.32.16","author":"Bob","approved":true},"variants":[{"sku":"SKU-22-0","color":"red","size":"L","stock":404},{"sku":"SKU-22-1","color":"green","size":"XS","stock":160},{"sku":"SKU-22-2","color":"black","size":"S","stock":269},{"sku":"SKU-22-3","color":"black","size":"M","stock":478},{"sku":"SKU-22-4","color":"green","size":"L","stock":391}]},{"id":"item_000023","name":"Product 23","description":"This is a detailed description for product 23. This is a detailed description for product 23. This is a detailed description for product 23. This is a detailed description for product 23. ","price":119.74,"quantity":655,"category":"electronics","tags":["tag_0","tag_1"],"metadata":{"created":"2024-12-10T18:46:00Z","updated":"2024-09-10T16:14:00Z","version":"v5.33.47","author":"Eve","approved":false},"variants":[{"sku":"SKU-23-0","color":"blue","size":"S","stock":177},{"sku":"SKU-23-1","color":"black","size":"M","stock":231},{"sku":"SKU-23-2","color":"green","size":"M","stock":109}]},{"id":"item_000024","name":"Product 24","description":"This is a detailed description for product 24. This is a detailed description for product 24. This is a detailed description for product 24. ","price":801.05,"quantity":512,"category":"electronics","tags":["tag_0","tag_1","tag_2","tag_3","tag_4","tag_5","tag_6"],"metadata":{"created":"2024-11-12T08:34:00Z","updated":"2024-11-15T03:40:00Z","version":"v4.3.60","author":"Alice","approved":false},"variants":[{"sku":"SKU-24-0","color":"red","size":"XL","stock":17},{"sku":"SKU-24-1","color":"green","size":"L","stock":386},{"sku":"SKU-24-2","color":"red","size":"XL","stock":373}]}],"meta":{"api_version":"3.2.1","server":"api-central.example.com","response_time_ms":355}}